vhld-docs/Multiplicador/Multiplicador.vcd
$date
  Wed Apr 03 12:04:11 2024
$end
$version
  GHDL v0
$end
$timescale
  1 fs
$end
$var reg 4 ! multiplicando[3:0] $end
$var reg 4 " multiplicadr[3:0] $end
$var reg 8 # producto[7:0] $end
$var reg 1 $ clk $end
$var reg 1 % clock_on $end
$scope module uut $end
$var reg 4 & multiplicando[3:0] $end
$var reg 4 ' multiplicadr[3:0] $end
$var reg 8 ( producto[7:0] $end
$var reg 1 ) clk $end
$var integer 32 * c $end
$upscope $end
$enddefinitions $end
#0
b1111 !
b1111 "
bUUUUUUUU #
0$
1%
b1111 &
b1111 '
bUUUUUUUU (
0)
b1010 *
#25000000
1$
1)
b1001 *
#50000000
0$
0)
#75000000
1$
1)
b1000 *
#100000000
0$
0)
#125000000
1$
1)
b111 *
#150000000
0$
0)
#175000000
1$
1)
b110 *
#200000000
0$
0)
#225000000
1$
1)
b101 *
#250000000
0$
0)
#275000000
1$
1)
b100 *
#300000000
0$
0)
#325000000
1$
1)
b11 *
#350000000
0$
0)
#375000000
1$
1)
b10 *
#400000000
0$
0)
#425000000
1$
1)
b1 *
#450000000
0$
0)
#475000000
b11100001 #
1$
b11100001 (
1)
