vhld-docs/TTL7411/TTL7411.vcd
$date
  Thu Mar 14 19:57:23 2024
$end
$version
  GHDL v0
$end
$timescale
  1 fs
$end
$var reg 1 ! a_tb $end
$var reg 1 " b_tb $end
$var reg 1 # c_tb $end
$var reg 1 $ f_tb $end
$scope module uut $end
$var reg 1 % a $end
$var reg 1 & b $end
$var reg 1 ' c $end
$var reg 1 ( f $end
$upscope $end
$enddefinitions $end
#0
0!
0"
0#
0$
0%
0&
0'
0(
#10000000
1!
1"
1#
1$
1%
1&
1'
1(
#20000000
0"
0$
0&
0(
#30000000
0!
1"
0%
1&
#40000000
1!
0#
1%
0'
#50000000
0"
0&
#60000000
0!
1"
0%
1&
#70000000
0"
1#
0&
1'
