vhld-docs/ALU2/ALU2.vcd
$date
  Fri May 10 12:09:09 2024
$end
$version
  GHDL v0
$end
$timescale
  1 fs
$end
$var reg 4 ! x[3:0] $end
$var reg 4 " r[3:0] $end
$var reg 3 # oper[2:0] $end
$var reg 1 $ cin $end
$var reg 1 % cout $end
$var reg 1 & ldr1 $end
$var reg 1 ' ldr2 $end
$var reg 1 ( ldr3 $end
$var reg 2 ) mux1[1:0] $end
$var reg 2 * mux2[1:0] $end
$var reg 1 + clk $end
$var reg 1 , clock_on $end
$scope module uut $end
$var reg 4 - x[3:0] $end
$var reg 4 . salalu[3:0] $end
$var reg 3 / oper[2:0] $end
$var reg 1 0 cin $end
$var reg 1 1 cout $end
$var reg 1 2 clk $end
$var reg 1 3 ldr1 $end
$var reg 1 4 ldr2 $end
$var reg 1 5 ldr3 $end
$var reg 2 6 mux1[1:0] $end
$var reg 2 7 mux2[1:0] $end
$var reg 4 8 r1[3:0] $end
$var reg 4 9 r2[3:0] $end
$var reg 4 : r3[3:0] $end
$var reg 4 ; out1[3:0] $end
$var reg 4 < out2[3:0] $end
$var reg 5 = wtfquecrazy[4:0] $end
$var reg 4 > r[3:0] $end
$upscope $end
$enddefinitions $end
#0
b0000 !
bZZZZ "
bUUU #
0$
U%
0&
0'
0(
b00 )
b00 *
0+
1,
b0000 -
bZZZZ .
bUUU /
00
U1
02
03
04
05
b00 6
b00 7
b0000 8
b0000 9
b0000 :
b0000 ;
b0000 <
bZZZZZ =
bZZZZ >
#25000000
1+
12
#50000000
0+
02
#75000000
1+
12
#100000000
b0101 !
b0101 "
b110 #
0%
1&
1'
b10 *
0+
b0101 -
b0101 .
b110 /
01
02
13
14
b10 7
b0101 ;
b00101 =
b0101 >
#125000000
1+
12
b0101 8
b0101 9
b0101 <
#150000000
0+
02
#175000000
1+
12
#200000000
b1010 "
b000 #
b01 )
0+
b1010 .
b000 /
02
b01 6
b01010 =
b1010 >
#225000000
b0100 "
1%
1+
b0100 .
11
12
b1010 8
b1010 9
b1010 ;
b1010 <
b10100 =
b0100 >
#250000000
0+
02
#275000000
b1000 "
0%
1+
b1000 .
01
12
b0100 8
b0100 9
b0100 ;
b0100 <
b01000 =
b1000 >
#300000000
b0011 !
b0011 "
b110 #
0&
b00 )
0+
b0011 -
b0011 .
b110 /
02
03
b00 6
b0011 ;
b00011 =
b0011 >
#325000000
1+
12
b0011 9
b0011 <
#350000000
0+
02
#375000000
1+
12
#400000000
b0111 "
b000 #
b01 )
0+
b0111 .
b000 /
02
b01 6
b0100 ;
b00111 =
b0111 >
#425000000
b1011 "
1+
b1011 .
12
b0111 9
b0111 <
b01011 =
b1011 >
#450000000
0+
02
#475000000
b1111 "
1+
b1111 .
12
b1011 9
b1011 <
b01111 =
b1111 >
#500000000
0+
0,
02
#525000000
b0011 "
1%
1+
b0011 .
11
12
b1111 9
b1111 <
b10011 =
b0011 >
