vhld-docs/TTL74194/TTL74194.vcd
$date
  Wed Feb 21 12:22:51 2024
$end
$version
  GHDL v0
$end
$timescale
  1 fs
$end
$var reg 4 ! abcd[3:0] $end
$var reg 4 " qabcd[3:0] $end
$var reg 1 # sr $end
$var reg 1 $ sl $end
$var reg 1 % s0 $end
$var reg 1 & s1 $end
$var reg 1 ' clk $end
$var reg 1 ( clr $end
$var reg 1 ) clock_on $end
$scope module uut $end
$var reg 4 * abcd[3:0] $end
$var reg 4 + qabcd[3:0] $end
$var reg 1 , sr $end
$var reg 1 - sl $end
$var reg 1 . s0 $end
$var reg 1 / s1 $end
$var reg 1 0 clk $end
$var reg 1 1 clr $end
$upscope $end
$enddefinitions $end
#0
bUUUU !
b0000 "
0#
0$
0%
0&
0'
0(
1)
bUUUU *
b0000 +
0,
0-
0.
0/
00
01
#15000000
b0101 !
1(
b0101 *
11
#25000000
1'
10
#50000000
0'
00
#75000000
1'
10
#100000000
0'
00
#115000000
1%
1&
1.
1/
#125000000
b0101 "
1'
b0101 +
10
#150000000
0'
00
#175000000
1'
10
#200000000
0'
00
#215000000
0&
0/
#225000000
b0010 "
1'
b0010 +
10
#250000000
0'
00
#275000000
b0001 "
1'
b0001 +
10
#300000000
0'
00
#315000000
0%
1&
0.
1/
#325000000
b0010 "
1'
b0010 +
10
#350000000
0'
00
#375000000
b0100 "
1'
b0100 +
10
#400000000
0'
00
#415000000
b1100 !
b1100 *
#425000000
b1000 "
1'
b1000 +
10
#450000000
0'
00
#475000000
b0000 "
1'
b0000 +
10
